bicycle replica clock wheel 	a bicycle replica with a clock as the front wheel .
honda motorcycle front garage 	a black honda motorcycle parked in front of a garage .
room walls sink door 	a room with blue walls and a white sink and door .
car car 	a car that seems to be parked illegally behind a legally parked car
passenger airplane air 	a large passenger airplane flying through the air .
gol plane sky 	there is a gol plane taking off in a partly cloudy sky .
color scheme bathroom 	blue and white color scheme in a small bathroom .
bathroom wall sink lifesaver wall 	this is a blue and white bathroom with a wall sink and a lifesaver on the wall .
boat bathroom life preserver wall 	a blue boat themed bathroom with a life preserver on the wall
bike clock tire 	the bike has a clock as a tire .
honda motorcycle grass driveway 	a honda motorcycle parked in a grass driveway
cars sidewalk street 	two cars parked on the sidewalk on the street
airplane 	an airplane that is , either , landing or just taking off .
bathroom walls baby 	a bathroom with walls that are painted baby blue .
bathroom toilet sink shower 	a bathroom with a toilet , sink , and shower .
home kitchen 	a long empty , minimal modern skylit home kitchen .
office cubicle types computers 	an office cubicle with four different types of computers .
bathroom sink toiletries counter 	a bathroom sink with toiletries on the counter .
toilet space 	a small closed toilet in a cramped space .
women bench street 	two women waiting at a bench next to a street .
bathroom sink hygiene items 	a bathroom sink and various personal hygiene items .
box cucumbers 	this is an open box containing four cucumbers .
station wagon driveway 	an old-fashioned green station wagon is parked on a shady driveway .
gas stove steel kitchen sink countertop 	a gas stove next to a stainless steel kitchen sink and countertop .
metal bicycle clock wheel 	a black metal bicycle with a clock inside the front wheel .
honda motorcycle seat 	a black honda motorcycle with a dark burgundy seat .
toilet sink combination room 	a tan toilet and sink combination in a small room .
motorcycles road formation 	several motorcycles riding down the road in formation .
cat toilet 	a black cat is inside a white toilet .
city street cars bench 	city street with parked cars and a bench .
home office space 	the home office space seems to be very cluttered .
man wheelchair bench water 	a man in a wheelchair and another sitting on a bench that is overlooking the water .
man cow 	a man sits with a traditionally decorated cow
rows motor bikes helmets city 	rows of motor bikes and helmets in a city
kitten dish table 	a cute kitten is sitting in a dish on a table .
bathroom countertop cabinetry 	a messy bathroom countertop perched atop black cabinetry .
man drink water fountain toilet 	a man getting a drink from a water fountain that is a toilet .
food container box food items 	an open food container box with four unknown food items .
car street 	an old teal colored car parked on the street .
dessert people 	a beautiful dessert waiting to be shared by two people
woman bench woman bus 	a woman sitting on a bench and a woman standing waiting for the bus .
person overlooks field crops 	a person holding a skateboard overlooks a dead field of crops .
group motorcycle riders buildings 	a group of motorcycle riders driving past buildings .
bathroom sink shower curtain map print 	a bathroom with a sink and shower curtain with a map print .
plane sky 	a random plane in the sky flying alone
airplane sky 	an airplane flying high in the blue sky .
woman bench middle city 	a woman sitting on a bench in the middle of the city
horse middle city grass 	a brown and black horse in the middle of the city eating grass .
purse bench 	a brown purse is sitting on a green bench .
toilet sink control panel 	this is an advanced toilet with a sink and control panel .
half cake coconuts top 	half of a white cake with coconuts on top .
toilet kitty cover top 	an old toilet with a hello kitty cover top .
office space office equipment desk top 	office space with office equipment on desk top .
husky car windows 	two husky's hanging out of the car windows .
door window kitchen 	the back door with a window in the kitchen .
jet liner distance day 	jet liner flying off into the distance on an overcast day
cat bird 	a cat eating a bird it has caught .
woman dog city 	a woman is walking a dog in the city .
cars parking spaces city street 	cars try to maneuver into parking spaces along a densely packed city street .
dogs heads car windows 	dogs stick their heads out of car windows
person patch grass scenery 	a person sits on a patch of grass observing the scenery .
bathroom toilet shelf 	a tiny bathroom with only a toilet and a shelf .
girl bathroom kids 	a little girl in a public bathroom for kids .
picture toilet fountain 	a close-up picture of a toilet with a fountain .
boy drinking water toilet water fountain 	a boy drinking water from a toilet water fountain .
picture man violin kitchen 	a picture of a man playing a violin in a kitchen .
shot man kitchen 	a shot of an elderly man inside a kitchen .
bathroom furnishing 	a small and crowded bathroom with little furnishing
trio dogs owner lap convertible 	a trio of dogs sitting in their owner's lap in a red convertible .
cat cars parking lot 	a cat in between two cars in a parking lot .
car front scooter 	a small car is parked in front of a scooter
woman bench woman bench bus stop 	a woman sitting on a bench and a woman standing behind the bench at a bus stop
woman dog sidewalk fence flowers 	a woman and her dog walking down a sidewalk next to a fence with some flowers .
door sticker cat door 	a door with a sticker of a cat door on it
office cubicle computers 	an office cubicle with multiple computers in it
pinewood kitchen area 	a pinewood and green modern themed kitchen area .
man violin kitchen 	a man is playing violin in his kitchen
man hat 	an old man is wearing an odd hat
kitchen cabinets celling 	a kitchen is shown with wooden cabinets and a wooden celling .
group people mopeds street 	a group of people riding mopeds in a busy street .
person rain sidewalk 	a person walking in the rain on the sidewalk .
kitchen marble furnishings 	a recently remodeled kitchen with marble and wooden furnishings .
parade motorcycles group trees 	a parade of motorcycles is going through a group of tall trees .
toilet bathroom tile 	a modern flush toilet in a bathroom with tile .
box vegetables 	a small box filled with four green vegetables .
car road surfboard top 	a classic car sitting beside the road with a surfboard on top .
fog air intersection traffic lights 	fog is in the air at an intersection with several traffic lights .
dogs car window woman lap 	three little dogs looking out a car window while sitting on a woman's lap .
man water fountain shape toilet 	a young man drinking from a water fountain in the shape of a toilet .
airplane wheels landing 	an airplane with its landing wheels out landing .
birds shoulder giraffe 	little birds sitting on the shoulder of a giraffe .
woman dog sidewalk 	a woman walking her dog on the sidewalk .
man bike marina 	a man with a bike at a marina
top giraffe head birds 	the top of a giraffe's head has birds on it .
plane airport 	a plane that is taking off at an airport
man bench bike 	a man is sitting on a bench next to a bike .
people bus bus stop 	people are waiting for the bus near a bus stop .
kitchen door window 	the kitchen has a white door with a window .
man cat 	a man sleeping with his cat next to him
kitchen dining room area window 	a kitchen and dining room area with a large window .
urinals restroom window 	four urinals in a public restroom with a window
airplane sky 	an red and white airplane is in the cloudy sky .
cat drinking water toilet 	a black cat drinking water from a toilet
kitchen marble counter tops steel fridge 	well kept kitchen with marble counter tops and stainless steel fridge
hope office setup computers printers 	a hope office setup of computers and printers .
person rain umbrella 	a person walking through the rain with an umbrella .
child climbs motorcycle 	a small child climbs atop a large motorcycle
u air force asphalt ramp 	a large u .s air force plain sits on an asphalt ramp .
photo man skiing 	a black and white photo of an older man skiing .
bathroom urinals wall 	a bathroom with four urinals on the wall .
picture kitchen area 	a picture of a modern looking kitchen area .
home office laptop printer scanner monitor 	a home office with laptop , printer , scanner , and extra monitor
people snow cross country skiing 	two people on the snow for cross country skiing .
motorcycle street one 	riding a motorcycle down a street that has no one else on it .
kitchen stove sink stuff 	a kitchen stove , sink , and counter with stuff on it .
man bench bicycle 	a man is sitting on a bench next to a bicycle .
crowd people bus 	a crowd of people are waiting to get on a red bus .
kitchen stovetop 	an all white kitchen with an electric stovetop .
cat water toilet bathroom 	a cat drinking water from a toilet in a bathroom .
intersection night 	an intersection during a cold and foggy night .
office desk computer chair laptop 	an office with desk computer and chair and laptop .
person rain umbrella 	a person walking in the rain while holding an umbrella .
woman driver dogs seat 	a woman driver has three dogs in the seat with her .
man picture airplane 	a man takes a picture of an airplane taking off .
telephone banana receiver 	the telephone has a banana where the receiver should be .
man pot food spoon 	the young man is stirring his pot of food with a wooden spoon .
toilet faucet controls 	off white toilet with a faucet and controls .
fighter jet speed 	a fighter jet is flying at a fast speed .
bathroom bunch urinals 	a public bathroom with a bunch of urinals .
airplane runway men 	the airplane is on the runway with two young men standing by .
kitchen wood cabinets 	a beautiful new kitchen with natural wood cabinets .
woman kitchen pan 	the woman in the kitchen is holding a huge pan .
boy motorcycle car 	a young boy riding a motorcycle next to a silver car .
stove counter tops 	a white stove sits between two small counter tops .
toilet window front shower 	a toilet sits next to a window and in front of a shower .
woman dog city street 	a woman walks her dog along a city street .
baby motorcycle 	a little baby is sitting on a huge motorcycle .
bathroom row urinals 	an old bathroom with a row of urinals .
wood kitchen estate ad 	a neat , wood filled kitchen is photographed as if for a real estate ad .
woman woman stop 	a woman and another woman waiting at a stop .
woman dogs car 	a woman and her three dogs in a car .
bathroom shower curtain subway map 	a small bathroom with a shower curtain with the nyc subway map on it .
bathroom map shower curtain 	a bathroom with a map as a shower curtain .
office lot computer screens 	office setting with a lot of computer screens .
couple cars street sidewalk 	a couple of cars parked in a busy street sidewalk .
passenger plane sky 	a passenger plane taking off into the sky .
kitchen door kitchen sing counter top 	a kitchen door next to a kitchen sing and counter top .
dog goat noses fence 	a dog and a goat with their noses touching at fence .
kitchen refrigerator 	a narrow kitchen ending with a chrome refrigerator .
boy motorcycle 	a little boy sitting alone on a motorcycle .
girl toilet bathroom 	a girl standing next to a toilet in a bathroom .
pedestrians sidewalk street 	pedestrians walking down a sidewalk next to a small street .
chef pan kitchen 	a chef carrying a large pan inside of a kitchen .
airplane sky 	an airplane flying away in a cloudy sky .
bathroom wicker laundry basket 	a full bathroom with a wicker laundry basket .
people dock ocean 	two people sitting on dock looking at the ocean .
man kitchen door 	a man standing in a kitchen while closing a cupboard door .
cat bowl 	a small white cat on a large bowl .
people bikes cars street 	people riding bikes and cars down the street .
color jet sky 	a silver color jet flying through the clear sky .
row urinals window 	a row of urinals in with an open window above them .
coconut cake plate 	the coconut cake on a red plate is half gone .
toilet bathroom 	a toilet and trashcan in a white bathroom .
man bike marina 	a man stands next to his bike at the marina .
people front beach 	two older people sitting down in front of a beach .
man bike chain fence 	an old man standing next to a bike and a chain fence .
bathroom sink 	a bathroom with pedestal sink and mirror over it .
photograph kitchen house 	a photograph of a kitchen inside a house .
bike metal fence water 	a bike leaning on a metal fence next to some flowing water .
person face toilet bowl 	a young person has his face close to the toilet bowl .
plane sky 	a plane that is flying in a clear blue sky .
person board field 	a person holding a skate board sitting in an empty open field .
purse bench 	a brown purse abandoned on a green bench .
fog streets night traffic lights 	empty fog covered streets in the night amongst traffic lights .
toilet stall toilet brush rolls toilet paper 	a small toilet stall with a toilet brush and 3 rolls of toilet paper
dessert cake cake plate 	a half eaten dessert cake sitting on a cake plate .
sink vanity mirrors sinks 	a dual sink vanity with mirrors above the sinks .
kitchen setup coffee maker counter 	close up of a white kitchen setup with a coffee maker on counter .
man drink water fountain 	a man taking a drink from a water fountain .
man cross country skis forest 	the old man cross country skis through the forest .
propeller airplane tarmac 	a large propeller airplane sitting on a tarmac .
lot motorbikes line street 	a lot of motorbikes line up down a busy street .
birds back giraffe 	three birds sit on the back of a giraffe .
desk chair office cubicle 	a desk and chair in an office cubicle .
fireplace fire 	a fireplace with a fire built in it .
giraffe birds fur 	a giraffe with 3 birds on his fur .
couple beach day 	an old couple at the beach during the day .
stove cabinet kitchen 	a white stove and cabinet inside a kitchen .
sign restaurant outside store 	the sign of a restaurant in the outside of the store .
man ground cow 	a decorative man sits on the ground with a cow .
sign building restaurant 	a sign on a building advertising an italian restaurant .
toilet kitty symbol 	a toilet with a hello kitty symbol on it .
picture woman wall urinals 	a picture of a woman hangs on the wall above the urinals .
man street bench bike 	a man sits on a street bench by a bike .
crowd people bus city 	a crowd of people get ready to board a bus in the city .
piece cake plate decorations 	there is a piece of cake on a plate with decorations on it .
man break standing bicycle 	a man holding some break standing by a bicycle .
bathroom toilet sink 	small bathroom with a toilet and a sink .
row urinals window 	a row of urinals stand beneath a open window .
toilet tile floor 	a white toilet sits on a tile floor .
airport plane runway 	an airport with one plane flying away and the other sitting on the runway
counter vegetables knife board 	a counter with vegetables , knife and cutting board on it .
boat car moves water 	a boat that looks like a car moves through the water .
car water lake 	a car modified to drive in the water on a lake .
cat cars sidewalk 	a cat stands between two parked cars on a grassy sidewalk .
creamy dessert whip cream caramel 	creamy cheesecake dessert with whip cream and caramel .
delivery truck advertisement entourage 	a delivery truck with an advertisement for entourage .
toilet plunger 	a black and white toilet with a plunger .
kitchen shades 	a narrow kitchen is decorated in shades of white , gray , and black .
man man forest 	a younger man and an older man skiing in the forest .
group motorcyclists tree street 	a group of motorcyclists drive down a tree lined street .
bike sign scotland 	a bike leaning against a sign in scotland .
bike front welcome sign 	a bike in front of a scenic welcome sign .
kitchen counters lights 	a green kitchen with wooden counters and bright lights .
kitchen stove sink area 	a kitchen with a stove , sink , and drying area .
kitten bowl 	a small kitten is sitting in a bowl .
box chocolate bananas 	an opened box of four chocolate bananas .
car side street 	an old green car parked on the side of the street .
toddler motorcycle parking lot 	a toddler sitting on a motorcycle in a parking lot .
cat attention cars 	a cat at attention between two parked cars .
jet tarmac 	jumbo jet sits on the tarmac while another takes off
lemons bowl rice 	asparragus , lemons and a bowl of rice on a counter top
cat head toilet 	a cat puts her head inside of a toilet .
van ad television show 	a large van features an ad for a television show .
toilet rug plunger 	a toilet has a rug , and a plunger next to it .
dog masters feet footstool tv 	a dog sitting between its masters feet on a footstool watching tv .
jet airport runway 	a large jet takes off from an airport runway .
person bench wheelchair seawall ocean 	a person on a bench , and one on a wheelchair sitting by a seawall looking out toward the ocean
women desk machinery factory 	women father around a desk and machinery in a factory .
dogs lap woman driver seat 	three dogs on the lap of a woman in the driver's seat of a convertible .
view motorcyclist point view street 	the view from a motorcyclist's point of view , looking down a street .
car boat water 	a car modified to be a boat on the water .
man cat nap 	a young man and his cute cat enjoy a nap together .
items top toilet bathroom stall 	a few items sit on top of a toilet in a bathroom stall .
dog feet person tv 	a dog between the feet of a person looking at a tv .
sign restaurant building 	a sign for an italian restaurant hangs outside a building .
man motorcycle street houses 	a man rides a motorcycle down an empty street next to houses .
bathroom poster face toilette 	a bathroom with a poster of an ugly face above the toilette .
marble bath room vanity stool sink basins mirrors lights 	a long marble like bath room vanity with a stool , two sink basins with mirrors and lights over them
sink door 	a sink next to a large white door
dirt bike rider stunt jump air 	a dirt bike rider doing a stunt jump in the air
people city street traffic 	people walking on a city street with light traffic .
toilet toilet paper cleaning brush 	a clean , european toilet with toilet paper and cleaning brush .
bathroom toilet tub wall plastic 	a bathroom with only a toilet and tub with the wall covered in plastic
flock birds top giraffe 	a flock of birds sits on top of a large giraffe .
couple birds sky 	a couple of birds fly through a blue cloudy sky .
dogs car heads windows 	two husky dogs ride in a car with their heads hanging out windows .
picture advertising arizona tourism airport 	a picture advertising arizona tourism in an airport
man fiddle kitchen 	a man is playing a fiddle in his kitchen .
man hat dining room 	an older man is wearing a funny hat in his dining room .
